{"page":3,"total_results":3949,"total_pages":198,"results":[{"vote_count":1,"id":590407,"video":false,"vote_average":10,"title":"FRITZ YOUSIF: a man of culture","popularity":1.722,"poster_path":"\/20XoWhtqIEM35FqG5LQqJsDZPlT.jpg","original_language":"en","original_title":"FRITZ YOUSIF: a man of culture","genre_ids":[99,35],"backdrop_path":"\/17F8uA0kduzNo2x1aqn6urbOXiz.jpg","adult":false,"overview":"A naive child Fritz Yousif creates a self documentary on how he creates music. It turns out that he gets to make a song that will air on an Icelandic radio station. Is his music good enough?","release_date":"2019-03-23"},{"vote_count":1,"id":590308,"video":false,"vote_average":10,"title":"We'll Go North","popularity":1.602,"poster_path":"\/nFZbrPS4u31cIWpyDXcIQl3JkTT.jpg","original_language":"en","original_title":"We'll Go North","genre_ids":[],"backdrop_path":null,"adult":false,"overview":"Two sisters leave their childhood home.","release_date":"2019-03-22"},{"vote_count":1,"id":589518,"video":false,"vote_average":10,"title":"Sawah","popularity":1.911,"poster_path":"\/yXSAHIxt7MbwSmmYPXPngfdwAtE.jpg","original_language":"en","original_title":"Sawah","genre_ids":[18,35],"backdrop_path":"\/l07Uj7nCqOWxsY3zvISIxuxK73x.jpg","adult":false,"overview":"On his way to a DJ Championship in Brussels, a young Egyptian is mistaken for an illegal immigrant and detained in a country he's never heard of before.","release_date":"2019-03-20"},{"vote_count":1,"id":588001,"video":false,"vote_average":10,"title":"Despite Everything","popularity":1.433,"poster_path":"\/fJG7Tq1DfuTsYHTk6Gikbkjbqq2.jpg","original_language":"es","original_title":"A pesar de todo","genre_ids":[35],"backdrop_path":"\/ensZ2nLvJEtFEioRFE6GJN9JPRI.jpg","adult":false,"overview":"Sara, Lucía, Sofía and Claudia are sisters, 4 modern women with very different personalities, who come together at their mother's funeral, after which they discover the man they've all called \"dad\" throughout their lives is not really their father. They embark on a quest to discover who their real fathers are, discovering more about themselves, their mother, and their lives.","release_date":"2019-03-16"},{"vote_count":1,"id":586809,"video":false,"vote_average":10,"title":"Emily Heller: Ice Thickeners","popularity":0.868,"poster_path":"\/r042Dsqiy8MJxtGbEorX6gIMvC8.jpg","original_language":"en","original_title":"Emily Heller: Ice Thickeners","genre_ids":[35],"backdrop_path":null,"adult":false,"overview":"The comic and writer for HBO’s Barry compares Donald Trump to Air Bud, answers some FAQs about vegetarianism, and recalls telling her personal trainer about her lack of fitness goals.","release_date":"2019-03-08"},{"vote_count":1,"id":586204,"video":false,"vote_average":10,"title":"Jetzt nicht Liebling","popularity":0.678,"poster_path":"\/a0huBM7k1NEo2AMgSAb24bxSwFu.jpg","original_language":"de","original_title":"Jetzt nicht Liebling","genre_ids":[35],"backdrop_path":null,"adult":false,"overview":"","release_date":"2019-03-03"},{"vote_count":1,"id":585602,"video":false,"vote_average":10,"title":"Be You T. Fool","popularity":0.6,"poster_path":null,"original_language":"en","original_title":"Be You T. Fool","genre_ids":[99],"backdrop_path":"\/qHyMG3Azi5CPKpHRgytj63ebMXY.jpg","adult":false,"overview":"An anonymous street artist reveals her secret practice of pasting portraits on the pillars of Chandler Highway Bridge in Melbourne, Australia.","release_date":"2019-02-09"},{"vote_count":1,"id":585560,"video":false,"vote_average":10,"title":"When I Get Home","popularity":1.141,"poster_path":"\/r9UHy41r7NgHSTFNPLEzrXuUS5v.jpg","original_language":"en","original_title":"When I Get Home","genre_ids":[10402],"backdrop_path":null,"adult":false,"overview":"In the three years since her seminal album \"A Seat at the Table\", Solange has broadened her artistic reach, expanding her work to museum installations, unconventional live performances, and striking videos. With her fourth album, \"When I Get Home\", the singer continues to push her vision forward with an exploration of roots and their lifelong influence. In Solange's case, that's the culturally rich Houston of her childhood. Some will know these references - candy paint, the late legend DJ Screw - via the city's mid-aughts hip-hop explosion, but through Solange's lens, these same touchstones are elevated to high art.","release_date":"2019-03-01"},{"vote_count":1,"id":585538,"video":false,"vote_average":10,"title":"02:34","popularity":0.641,"poster_path":"\/8pbSduxfUxcRkUTCJXFpipC6Hvs.jpg","original_language":"en","original_title":"02:34","genre_ids":[27],"backdrop_path":null,"adult":false,"overview":"A young Scottish teen tries his best to overcome his fear of sleeping in this short horror.","release_date":"2019-03-01"},{"vote_count":1,"id":585500,"video":false,"vote_average":10,"title":"Respire","popularity":0.804,"poster_path":null,"original_language":"en","original_title":"Respire","genre_ids":[9648],"backdrop_path":null,"adult":false,"overview":"The unusual, violent debut short film by Zak Cameron.  Are the violent thoughts and actions inside Billy's head real or a fantasy?","release_date":"2019-03-07"},{"vote_count":1,"id":584807,"video":false,"vote_average":10,"title":"Neon City Files","popularity":0.602,"poster_path":"\/5U1ZWo05JMb8wi2cX6zaklE3mTt.jpg","original_language":"id","original_title":"Neon City Files","genre_ids":[],"backdrop_path":null,"adult":false,"overview":"Digital recreation analysis file taken in Neon City safe. The DNR subject attempts to synthesize illegal \"vitamins\" with recipes stolen from \"Neon City\" safes. Official Bull 01 with the Conselour Unit to the location to neutralize. Official Bull (data censored).","release_date":"2019-01-18"},{"vote_count":1,"id":584047,"video":false,"vote_average":10,"title":"The World's Strongest Man: The Mark Henry Story","popularity":0.751,"poster_path":"\/umuB2eNckvLBQAnApbmlTUM9nD8.jpg","original_language":"en","original_title":"The World's Strongest Man: The Mark Henry Story","genre_ids":[99],"backdrop_path":"\/7KzYbPG2lbsClAsKUGB6eAuu2Mg.jpg","adult":false,"overview":"An exclusive look at the hard but rewarding life of The World's Strongest Man & WWE Hall of Famer Mark Henry.","release_date":"2019-02-17"},{"vote_count":3,"id":583841,"video":false,"vote_average":10,"title":"Truth and Justice","popularity":0.722,"poster_path":"\/ghtt7AjNRY9QqC3usz6xEmsyXll.jpg","original_language":"et","original_title":"Tõde ja Õigus","genre_ids":[18,36],"backdrop_path":"\/aF6ZNNt254abdvywjjvvRTf8DOn.jpg","adult":false,"overview":"Estonia, 1872. The uncompromising new owner of Robber's Rise must battle with hard work, his spiteful neighbor and with his own family and beliefs to transform the poor land into a flourishing farm of his dreams.","release_date":"2019-02-22"},{"vote_count":1,"id":583603,"video":false,"vote_average":10,"title":"La Escuela: Septiembre","popularity":0.6,"poster_path":"\/7RCvP3IqBXQjidoRLkBsfvLfF0G.jpg","original_language":"es","original_title":"La Escuela: Septiembre","genre_ids":[35,99],"backdrop_path":null,"adult":false,"overview":"","release_date":"2019-02-24"},{"vote_count":1,"id":583041,"video":false,"vote_average":10,"title":"Urbanus: De Vuilnisheld","popularity":0.859,"poster_path":"\/5HXFNy74oqaCWme602XDAxfD2ZQ.jpg","original_language":"nl","original_title":"Urbanus: De Vuilnisheld","genre_ids":[16,35],"backdrop_path":"\/pACDwVNlz6EEqO0Mw6ddKIt4IfH.jpg","adult":false,"overview":"The grown-ups of Tollembeek make a deal with the suspicious Igor. The Russian can dump all his garbage and toxic waste in the village for a year, and he will pay the inhabitants a whole lot of money. Urbanus seizes the opportunity to finally buy his engagement ring for Miss Pussy. But of course, things don't go according to plan...","release_date":"2019-02-27"},{"vote_count":1,"id":582806,"video":false,"vote_average":10,"title":"Stuck In Gear","popularity":0.751,"poster_path":"\/urqFlkE0B3DIgfpGFQIYX1BQJnt.jpg","original_language":"is","original_title":"Fastir Í Fyrsta Gír","genre_ids":[53,35],"backdrop_path":null,"adult":false,"overview":"Fúsi is a teenager who wants a change in his repetitive life. Trouble comes however when things don't go to plan.","release_date":"2019-02-17"},{"vote_count":1,"id":582464,"video":false,"vote_average":10,"title":"If Only Howard Showered","popularity":0.6,"poster_path":null,"original_language":"en","original_title":"If Only Howard Showered","genre_ids":[],"backdrop_path":null,"adult":false,"overview":"Howard has to get over his fear of showering or risk losing his friends.","release_date":"2019-01-14"},{"vote_count":1,"id":582443,"video":false,"vote_average":10,"title":"Organize İşler 2: Sazan Sarmalı","popularity":0.6,"poster_path":"\/axgSjtLFwHlBDFQyUHhEk9NB8uu.jpg","original_language":"tr","original_title":"Organize İşler 2: Sazan Sarmalı","genre_ids":[],"backdrop_path":null,"adult":false,"overview":"","release_date":"2019-02-01"},{"vote_count":1,"id":581940,"video":false,"vote_average":10,"title":"Bene ma non benissimo","popularity":3.842,"poster_path":"\/39OKp2by9ZMBCqqPqTDmQeOXTjC.jpg","original_language":"it","original_title":"Bene ma non benissimo","genre_ids":[],"backdrop_path":"\/izGTlZAUPwqhmSVj21r5XVU015t.jpg","adult":false,"overview":"","release_date":"2019-04-04"},{"vote_count":1,"id":581214,"video":false,"vote_average":10,"title":"Purpurinis rūkas","popularity":0.732,"poster_path":"\/yiM9je2dkXwugPPXk9WUQvsUPYF.jpg","original_language":"lt","original_title":"Purpurinis rūkas","genre_ids":[18,36],"backdrop_path":"\/eHnVWy86DiusUlxgfkmM8bdrch9.jpg","adult":false,"overview":"'Purple Smoke' tells the complex story of Lithuanian Jew Jozef, partisan commander Vlad and their two beloved Janes.","release_date":"2019-02-06"}]}